codereview2
…
library(readxl)
library(selenider)
library(rvest)
library(tidyverse)
library(netstat)
library(pingr)
library(jsonlite)
library(stringr)
library(openalexR)

# My manual data set, including manual review of professor experience abroad
ru_soc_profs <- read_excel("C:/Github/labjournal/ru_soc_profs.xlsx")
ru_soc_profs

#> # A tibble: 41 × 6
#>    Name                     Title                female beyond_dutch_exp nonwhite time_at_uni
#>    <chr>                    <chr>                <chr>  <chr>            <chr>    <chr>      
#>  1 Jeannette van Aarle      Management assistant 1      0                0        NA         
#>  2 Samira Azabar            Postdoc              1      1                1        2          
#>  3 Weverthon Machado        Postdoc              0      1                1        0          
#>  4 Ronald Battenburg        Endowed professor    0      0                0        8          
#>  5 Katia Begall             Assisstant professor 1      0                0        6          
#>  6 Janos Betko              Guest researcher     0      0                0        3          
#>  7 Lieselotte Blommaert     Assisstant professor 1      0                0        11         
#>  8 Nina Branten             PhD candidate        1      1                0        1          
#>  9 Annick van Brouwershaven PhD candidate        0      0                NA       3          
#> 10 Haisu Chen               PhD candidate        1      NA               NA       NA         
#> # ℹ 31 more rows
…
