lab5
…
2.1.1 Collect set of
Professors

#install.packages("readxl")
library(readxl)

# My manual data set, including manual review of professor experience abroad
ru_soc_profs <- read_excel("C:/Github/labjournal/ru_soc_profs.xlsx")
ru_soc_profs

#> # A tibble: 41 × 6
#>    Name                     Title                female beyond_dutch_exp nonwhite time_at_uni
#>    <chr>                    <chr>                <chr>  <chr>            <chr>    <chr>      
#>  1 Jeannette van Aarle      Management assistant 1      0                0        NA         
#>  2 Samira Azabar            Postdoc              1      1                1        2          
#>  3 Weverthon Machado        Postdoc              0      1                1        0          
#>  4 Ronald Battenburg        Endowed professor    0      0                0        8          
#>  5 Katia Begall             Assisstant professor 1      0                0        6          
#>  6 Janos Betko              Guest researcher     0      0                0        3          
#>  7 Lieselotte Blommaert     Assisstant professor 1      0                0        11         
#>  8 Nina Branten             PhD candidate        1      1                0        1          
#>  9 Annick van Brouwershaven PhD candidate        0      0                NA       3          
#> 10 Haisu Chen               PhD candidate        1      NA               NA       NA         
#> # ℹ 31 more rows
…
#> [1] "https://openalex.org/A5014129369"
#> [1] "https://openalex.org/A5023395007"

co_authors[[authorid]]

#> # A tibble: 353 × 8
#>    ego_id     id    display_name orcid author_position is_corresponding affiliations affiliation_raw
#>    <chr>      <chr> <chr>        <chr> <chr>           <lgl>            <list>       <chr>          
#>  1 https://o… http… Daniela Gru… http… first           TRUE             <df [1 × 6]> Goethe-Univers…
#>  2 https://o… http… Sandra Buch… http… last            FALSE            <df [1 × 6]> Goethe-Univers…
#>  3 https://o… http… Melinda Mil… http… first           FALSE            <df [1 × 6]> university of …
#>  4 https://o… http… Letizia Men… http… middle          FALSE            <df [1 × 6]> University of …
#>  5 https://o… http… Maria Letiz… http… last            FALSE            <df [1 × 6]> University of …
#>  6 https://o… http… Daniela Gru… http… middle          FALSE            <df [0 × 6]> <NA>           
#>  7 https://o… http… Sandra Buch… http… last            FALSE            <df [1 × 6]> Goethe Univers…
#>  8 https://o… http… Melinda Mil… http… last            FALSE            <df [1 × 6]> Department of …
#>  9 https://o… http… Margaret Mi… <NA>  last            FALSE            <df [1 × 6]> Department of …
#> 10 https://o… http… Melinda Mil… http… first           FALSE            <df [1 × 6]> Department of …
#> # ℹ 343 more rows
…
